module go-rrefac

go 1.17

require (
	fyne.io/fyne/v2 v2.1.0
	github.com/stretchr/testify v1.7.0
	github.com/tealeg/xlsx v1.0.5
	go.uber.org/zap v1.19.1
	golang.org/x/net v0.0.0-20210405180319-a5a99cb37ef4
)

require (
	github.com/davecgh/go-spew v1.1.1 // indirect
	github.com/fredbi/uri v0.0.0-20181227131451-3dcfdacbaaf3 // indirect
	github.com/fsnotify/fsnotify v1.4.9 // indirect
	github.com/go-gl/gl v0.0.0-20210813123233-e4099ee2221f // indirect
	github.com/go-gl/glfw/v3.3/glfw v0.0.0-20210410170116-ea3d685f79fb // indirect
	github.com/godbus/dbus/v5 v5.0.4 // indirect
	github.com/goki/freetype v0.0.0-20181231101311-fa8a33aabaff // indirect
	github.com/pmezard/go-difflib v1.0.0 // indirect
	github.com/srwiley/oksvg v0.0.0-20200311192757-870daf9aa564 // indirect
	github.com/srwiley/rasterx v0.0.0-20200120212402-85cb7272f5e9 // indirect
	github.com/yuin/goldmark v1.3.8 // indirect
	go.uber.org/atomic v1.7.0 // indirect
	go.uber.org/multierr v1.6.0 // indirect
	golang.org/x/image v0.0.0-20210628002857-a66eb6448b8d // indirect
	golang.org/x/sys v0.0.0-20210630005230-0f9fa26af87c // indirect
	golang.org/x/text v0.3.6 // indirect
	gopkg.in/yaml.v3 v3.0.0-20210107192922-496545a6307b // indirect
)
